(footprint "test"
	(version 20240108)
	(generator "kicad-footprint-generator")
	(layer "F.Cu")
	(descr "A example footprint")
	(tags "example")
	(property "Reference" "REF**"
		(at 0 -3 0)
		(layer "F.SilkS")
		(effects
			(font
				(size 1 1)
				(thickness 0.15)
			)
		)
	)
	(property "Value" "test"
		(at 1.5 3 0)
		(layer "F.Fab")
		(effects
			(font
				(size 1 1)
				(thickness 0.15)
			)
		)
	)
	(attr smd)
	(fp_rect
		(start -2 -2)
		(end 5 2)
		(stroke
			(width 0.12)
			(type solid)
		)
		(fill none)
		(layer "F.SilkS")
	)
	(fp_rect
		(start -2.25 -2.25)
		(end 5.25 2.25)
		(stroke
			(width 0.12)
			(type solid)
		)
		(fill none)
		(layer "F.CrtYd")
	)
	(pad "1" thru_hole rect
		(at 0 0)
		(size 2 2)
		(drill 1.2)
		(layers "*.Cu" "*.Mask")
		(remove_unused_layers no)
	)
	(pad "2" thru_hole circle
		(at 3 0)
		(size 2 2)
		(drill 1.2)
		(layers "*.Cu" "*.Mask")
		(remove_unused_layers no)
	)
	(model "example.3dshapes/example_footprint.wrl"
		(offset
			(xyz 0 0 0)
		)
		(scale
			(xyz 1 1 1)
		)
		(rotate
			(xyz 0 0 0)
		)
	)
)
