(footprint "cut_polygon"
	(version 20240108)
	(generator "kicad-footprint-generator")
	(layer "F.Cu")
	(attr smd)
	(pad "1" smd custom
		(at 0 0)
		(size 0.5 0.5)
		(layers "F.Cu" "F.Paste" "F.Mask")
		(options
			(clearance outline)
			(anchor circle)
		)
		(primitives
			(gr_poly
				(pts
					(xy -2 -2)
					(xy 2 -2)
					(xy 2 2)
					(xy 1 1)
					(xy 1 0)
					(xy 0 0)
					(xy 0 1)
					(xy 1 1)
					(xy 2 2)
					(xy -2 2)
				)
				(width 0)
			)
		)
	)
)
