(footprint "chamfered_pad"
	(version 20240108)
	(generator "kicad-footprint-generator")
	(layer "F.Cu")
	(attr smd)
	(pad "1" smd custom
		(at 0 0)
		(size 0.764298 0.764298)
		(layers "F.Cu" "F.Paste" "F.Mask")
		(options
			(clearance outline)
			(anchor circle)
		)
		(primitives
			(gr_poly
				(pts
					(xy -0.5 -0.166667)
					(xy -0.166667 -0.5)
					(xy 0.166667 -0.5)
					(xy 0.5 -0.166667)
					(xy 0.5 0.166667)
					(xy 0.166667 0.5)
					(xy -0.166667 0.5)
					(xy -0.5 0.166667)
				)
				(width 0)
			)
		)
	)
	(pad "1" smd custom
		(at 2 2)
		(size 1.357538 1.357538)
		(layers "F.Cu" "F.Paste" "F.Mask")
		(options
			(clearance outline)
			(anchor circle)
		)
		(primitives
			(gr_poly
				(pts
					(xy -1.05 -0.5)
					(xy -0.55 -1.55)
					(xy 0.55 -1.55)
					(xy 1.05 -0.5)
					(xy 1.05 0.5)
					(xy 0.55 1.55)
					(xy -0.55 1.55)
					(xy -1.05 0.5)
				)
				(width 0)
			)
		)
	)
)
