(footprint "filltest"
	(version 20240108)
	(generator "kicad-footprint-generator")
	(layer "F.Cu")
	(zone
		(net 0)
		(net_name "")
		(layers)
		(name "")
		(hatch edge 0.5)
		(connect_pads
			(clearance 0)
		)
		(filled_areas_thickness no)
		(min_thickness 0.25)
		(fill yes
			(thermal_gap 0.5)
			(thermal_bridge_width 0.5)
			(smoothing fillet)
			(radius 0)
			(island_removal_mode 0)
		)
		(polygon
			(pts
				(xy 0 0)
				(xy 0 1)
				(xy 1 1)
				(xy 1 0)
			)
		)
	)
)
